{
  "content": [
    {
      "id": 55,
      "name": "demoproject1",
      "status": "DRAFT",
      "lastModifiedDate": "2018-03-02 16:25:59",
      "createdBy": "denila.philip",
      "createdDate": "2018-03-02 16:25:59",
      "lastModifiedBy": "denila.philip",
      "numScenarios": 5
    },
    {
      "id": 54,
      "name": "Demoproject2",
      "status": "DRAFT",
      "lastModifiedDate": "2018-03-02 15:48:21",
      "createdBy": "denila.philip",
      "createdDate": "2018-03-02 15:48:21",
      "lastModifiedBy": "denila.philip",
      "numScenarios": 7
    },
    {
      "id": 53,
      "name": "ewwewer",
      "status": "DRAFT",
      "lastModifiedDate": "2018-03-02 13:00:42",
      "createdBy": "chris.quon",
      "createdDate": "2018-03-02 13:00:42",
      "lastModifiedBy": "chris.quon",
      "numScenarios": 7
    },
    {
      "id": 52,
      "name": "Demoproject",
      "status": "DRAFT",
      "lastModifiedDate": "2018-03-01 20:56:58",
      "createdBy": "denila.philip",
      "createdDate": "2018-03-01 20:56:58",
      "lastModifiedBy": "denila.philip",
      "numScenarios": 7
    },
    {
      "id": 51,
      "name": "Newproject12",
      "status": "DRAFT",
      "lastModifiedDate": "2018-03-01 20:49:32",
      "createdBy": "denila.philip",
      "createdDate": "2018-03-01 20:49:32",
      "lastModifiedBy": "denila.philip",
      "numScenarios": 7
    },
    {
      "id": 50,
      "name": "dfssdwqwwwww",
      "status": "DRAFT",
      "lastModifiedDate": "2018-03-01 06:12:08",
      "createdBy": "chris.quon",
      "createdDate": "2018-03-01 06:12:08",
      "lastModifiedBy": "chris.quon",
      "numScenarios": 7
    },
    {
      "id": 49,
      "name": "fgeee",
      "status": "DRAFT",
      "lastModifiedDate": "2018-03-01 06:12:03",
      "createdBy": "chris.quon",
      "createdDate": "2018-03-01 06:12:03",
      "lastModifiedBy": "chris.quon",
      "numScenarios": 7
    },
    {
      "id": 48,
      "name": "fdgfdfgr",
      "status": "DRAFT",
      "lastModifiedDate": "2018-03-01 06:11:54",
      "createdBy": "chris.quon",
      "createdDate": "2018-03-01 06:11:54",
      "lastModifiedBy": "chris.quon",
      "numScenarios": 7
    },
    {
      "id": 47,
      "name": "wssaww",
      "status": "DRAFT",
      "lastModifiedDate": "2018-03-01 06:11:15",
      "createdBy": "chris.quon",
      "createdDate": "2018-03-01 06:11:15",
      "lastModifiedBy": "chris.quon",
      "numScenarios": 32
    },
    {
      "id": 46,
      "name": "dddddd",
      "status": "DRAFT",
      "lastModifiedDate": "2018-02-28 19:42:06",
      "createdBy": "chris.quon",
      "createdDate": "2018-02-28 19:42:06",
      "lastModifiedBy": "chris.quon",
      "numScenarios": 56
    },
    {
      "id": 45,
      "name": "ccccxc",
      "status": "DRAFT",
      "lastModifiedDate": "2018-02-28 19:41:59",
      "createdBy": "chris.quon",
      "createdDate": "2018-02-28 19:41:59",
      "lastModifiedBy": "chris.quon",
      "numScenarios": 56
    },
    {
      "id": 44,
      "name": "xcscz",
      "status": "DRAFT",
      "lastModifiedDate": "2018-02-28 19:41:25",
      "createdBy": "chris.quon",
      "createdDate": "2018-02-28 19:41:25",
      "lastModifiedBy": "chris.quon",
      "numScenarios": 56
    },
    {
      "id": 43,
      "name": "projectnew",
      "status": "DRAFT",
      "lastModifiedDate": "2018-02-28 03:36:48",
      "createdBy": "denila.philip",
      "createdDate": "2018-02-28 03:36:48",
      "lastModifiedBy": "denila.philip",
      "numScenarios": 56
    },
    {
      "id": 42,
      "name": "Newproject1",
      "status": "DRAFT",
      "lastModifiedDate": "2018-02-28 03:28:17",
      "createdBy": "denila.philip",
      "createdDate": "2018-02-28 03:28:17",
      "lastModifiedBy": "denila.philip",
      "numScenarios": 56
    },
    {
      "id": 41,
      "name": "test123",
      "status": "DRAFT",
      "lastModifiedDate": "2018-02-27 16:25:30",
      "createdBy": "denila.philip",
      "createdDate": "2018-02-27 16:25:30",
      "lastModifiedBy": "denila.philip",
      "numScenarios": 56
    },
    {
      "id": 40,
      "name": "test456",
      "status": "DRAFT",
      "lastModifiedDate": "2018-02-27 16:14:38",
      "createdBy": "denila.philip",
      "createdDate": "2018-02-27 16:14:38",
      "lastModifiedBy": "denila.philip","numScenarios": 56

    },
    {
      "id": 39,
      "name": "test345",
      "status": "DRAFT",
      "lastModifiedDate": "2018-02-27 16:14:06",
      "createdBy": "denila.philip",
      "createdDate": "2018-02-27 16:14:06",
      "lastModifiedBy": "denila.philip",
      "numScenarios": 56
    },
    {
      "id": 38,
      "name": "testxyz",
      "status": "DRAFT",
      "lastModifiedDate": "2018-02-27 04:58:16",
      "createdBy": "denila.philip",
      "createdDate": "2018-02-27 04:58:16",
      "lastModifiedBy": "denila.philip",
      "numScenarios": 56
    },
    {
      "id": 37,
      "name": "test3",
      "status": "DRAFT",
      "lastModifiedDate": "2018-02-27 04:47:16",
      "createdBy": "denila.philip",
      "createdDate": "2018-02-27 04:47:16",
      "lastModifiedBy": "denila.philip",
      "numScenarios": 56
    },
    {
      "id": 36,
      "name": "testproject3",
      "status": "DRAFT",
      "lastModifiedDate": "2018-02-27 04:34:43",
      "createdBy": "denila.philip",
      "createdDate": "2018-02-27 04:34:43",
      "lastModifiedBy": "denila.philip",
      "numScenarios": 56
    }
  ],
  "totalElements": 55,
  "last": false,
  "totalPages": 3,
  "sort": [
    {
      "direction": "DESC",
      "property": "lastModifiedDate",
      "ignoreCase": false,
      "nullHandling": "NATIVE",
      "descending": true,
      "ascending": false
    }
  ],
  "first": true,
  "numberOfElements": 20,
  "size": 20,
  "number": 0
}